[gd_scene load_steps=2 format=3 uid="uid://bic6jj8tbdjui"]

[ext_resource type="Script" path="res://Screens/end_screen.gd" id="1_42u4j"]

[node name="End Screen" type="Control"]
layout_mode = 3
anchors_preset = 15
anchor_right = 1.0
anchor_bottom = 1.0
grow_horizontal = 2
grow_vertical = 2
script = ExtResource("1_42u4j")

[node name="VBoxContainer" type="VBoxContainer" parent="."]
layout_mode = 1
anchors_preset = 8
anchor_left = 0.5
anchor_top = 0.5
anchor_right = 0.5
anchor_bottom = 0.5
offset_left = -55.5
offset_top = -45.5
offset_right = 55.5
offset_bottom = 45.5
grow_horizontal = 2
grow_vertical = 2

[node name="WinLabel" type="Label" parent="VBoxContainer"]
layout_mode = 2
text = "You won!"

[node name="LossLabel" type="Label" parent="VBoxContainer"]
layout_mode = 2
text = "You lost!"

[node name="HBoxContainer" type="HBoxContainer" parent="VBoxContainer"]
layout_mode = 2

[node name="RestartButton" type="Button" parent="VBoxContainer/HBoxContainer"]
layout_mode = 2
text = "Restart"

[node name="QuitButton" type="Button" parent="VBoxContainer/HBoxContainer"]
layout_mode = 2
text = "Quit"

[connection signal="pressed" from="VBoxContainer/HBoxContainer/RestartButton" to="." method="_on_restart_button_pressed"]
[connection signal="pressed" from="VBoxContainer/HBoxContainer/QuitButton" to="." method="_on_quit_button_pressed"]
